// Jest Snapshot v1, https://goo.gl/fbAQLP

exports[`Test table component 1`] = `
<div>
  <div
    className="sc-AxheI fQJOWP"
  >
    <div
      className="sc-AxirZ iJUfdN"
      onClick={[Function]}
    >
      <span
        className="sc-AxhUy cTwpSs"
      >
        <svg
          aria-hidden="true"
          className="sc-AxjAm gXIMwt"
          fill="currentColor"
          focusable="false"
          height="18"
          viewBox="0 0 24 24"
          width="18"
          xmlns="http://www.w3.org/2000/svg"
        >
          <path
            d="M15 11.586V6h2V4a2 2 0 00-2-2H9a2 2 0 00-2 2v2h2v5.586l-2.707 1.707A.996.996 0 006 14v2a1 1 0 001 1h4v3l1 2 1-2v-3h4a1 1 0 001-1v-2a.996.996 0 00-.293-.707L15 11.586z"
          />
        </svg>
      </span>
      <span
        className="sc-AxhCb iSkGeM"
      >
        id
      </span>
    </div>
    <div
      className="sc-AxirZ iJUfdN"
      onClick={[Function]}
    >
      <span
        className="sc-AxhUy cTwpSs"
      >
        <svg
          aria-hidden="true"
          className="sc-AxjAm gXIMwt"
          fill="currentColor"
          focusable="false"
          height="18"
          viewBox="0 0 24 24"
          width="18"
          xmlns="http://www.w3.org/2000/svg"
        >
          <path
            d="M15 11.586V6h2V4a2 2 0 00-2-2H9a2 2 0 00-2 2v2h2v5.586l-2.707 1.707A.996.996 0 006 14v2a1 1 0 001 1h4v3l1 2 1-2v-3h4a1 1 0 001-1v-2a.996.996 0 00-.293-.707L15 11.586z"
          />
        </svg>
      </span>
      <span
        className="sc-AxhCb iSkGeM"
      >
        name
      </span>
    </div>
    <div
      className="sc-AxirZ iJUfdN"
      onClick={[Function]}
    >
      <span
        className="sc-AxhUy cTwpSs"
      >
        <svg
          aria-hidden="true"
          className="sc-AxjAm gXIMwt"
          fill="currentColor"
          focusable="false"
          height="18"
          viewBox="0 0 24 24"
          width="18"
          xmlns="http://www.w3.org/2000/svg"
        >
          <path
            d="M15 11.586V6h2V4a2 2 0 00-2-2H9a2 2 0 00-2 2v2h2v5.586l-2.707 1.707A.996.996 0 006 14v2a1 1 0 001 1h4v3l1 2 1-2v-3h4a1 1 0 001-1v-2a.996.996 0 00-.293-.707L15 11.586z"
          />
        </svg>
      </span>
      <span
        className="sc-AxhCb iSkGeM"
      >
        age
      </span>
    </div>
    <div
      className="sc-AxgMl kivsMR"
    >
      3
    </div>
    <div
      className="sc-AxgMl kivsMR"
    >
      Beru Whitesun lars
    </div>
    <div
      className="sc-AxgMl kivsMR"
    >
      57
    </div>
    <div
      className="sc-AxgMl kivsMR"
    >
      1
    </div>
    <div
      className="sc-AxgMl kivsMR"
    >
      Darth Vader
    </div>
    <div
      className="sc-AxgMl kivsMR"
    >
      43
    </div>
    <div
      className="sc-AxgMl kivsMR"
    >
      2
    </div>
    <div
      className="sc-AxgMl kivsMR"
    >
      Owen Lars
    </div>
    <div
      className="sc-AxgMl kivsMR"
    >
      34
    </div>
  </div>
</div>
`;

exports[`Test table component 2`] = `
<div>
  <div
    className="sc-AxheI fQJOWP"
  >
    <div
      className="sc-AxirZ iJUfdN"
      onClick={[Function]}
    >
      <span
        className="sc-AxhUy cTwpSs"
      >
        <svg
          aria-hidden="true"
          className="sc-AxjAm gXIMwt"
          fill="currentColor"
          focusable="false"
          height="18"
          viewBox="0 0 24 24"
          width="18"
          xmlns="http://www.w3.org/2000/svg"
        >
          <path
            d="M15 11.586V6h2V4a2 2 0 00-2-2H9a2 2 0 00-2 2v2h2v5.586l-2.707 1.707A.996.996 0 006 14v2a1 1 0 001 1h4v3l1 2 1-2v-3h4a1 1 0 001-1v-2a.996.996 0 00-.293-.707L15 11.586z"
          />
        </svg>
      </span>
      <span
        className="sc-AxhCb iSkGeM"
      >
        id
      </span>
    </div>
    <div
      className="sc-AxirZ iJUfdN"
      onClick={[Function]}
    >
      <span
        className="sc-AxhUy cTwpSs"
      >
        <svg
          aria-hidden="true"
          className="sc-AxjAm gXIMwt"
          fill="currentColor"
          focusable="false"
          height="18"
          viewBox="0 0 24 24"
          width="18"
          xmlns="http://www.w3.org/2000/svg"
        >
          <path
            d="M15 11.586V6h2V4a2 2 0 00-2-2H9a2 2 0 00-2 2v2h2v5.586l-2.707 1.707A.996.996 0 006 14v2a1 1 0 001 1h4v3l1 2 1-2v-3h4a1 1 0 001-1v-2a.996.996 0 00-.293-.707L15 11.586z"
          />
        </svg>
      </span>
      <span
        className="sc-AxhCb iSkGeM"
      >
        age
      </span>
    </div>
    <div
      className="sc-AxirZ cSrPiv"
      onClick={[Function]}
    >
      <span
        className="sc-AxhUy cTwpSs"
      >
        <svg
          aria-hidden="true"
          className="sc-AxjAm gXIMwt"
          fill="currentColor"
          focusable="false"
          height="18"
          viewBox="0 0 24 24"
          width="18"
          xmlns="http://www.w3.org/2000/svg"
        >
          <path
            d="M15 11.586V6h2V4a2 2 0 00-2-2H9a2 2 0 00-2 2v2h2v5.586l-2.707 1.707A.996.996 0 006 14v2a1 1 0 001 1h4v3l1 2 1-2v-3h4a1 1 0 001-1v-2a.996.996 0 00-.293-.707L15 11.586z"
          />
        </svg>
      </span>
      <span
        className="sc-AxhCb iSkGeM"
      >
        name
      </span>
    </div>
    <div
      className="sc-AxgMl kivsMR"
    >
      3
    </div>
    <div
      className="sc-AxgMl kivsMR"
    >
      57
    </div>
    <div
      className="sc-AxgMl gYJoZz"
    >
      Beru Whitesun lars
    </div>
    <div
      className="sc-AxgMl kivsMR"
    >
      1
    </div>
    <div
      className="sc-AxgMl kivsMR"
    >
      43
    </div>
    <div
      className="sc-AxgMl gYJoZz"
    >
      Darth Vader
    </div>
    <div
      className="sc-AxgMl kivsMR"
    >
      2
    </div>
    <div
      className="sc-AxgMl kivsMR"
    >
      34
    </div>
    <div
      className="sc-AxgMl gYJoZz"
    >
      Owen Lars
    </div>
  </div>
</div>
`;

exports[`Test table component 3`] = `
<div>
  <div
    className="sc-AxheI fQJOWP"
  >
    <div
      className="sc-AxirZ iJUfdN"
      onClick={[Function]}
    >
      <span
        className="sc-AxhUy cTwpSs"
      >
        <svg
          aria-hidden="true"
          className="sc-AxjAm gXIMwt"
          fill="currentColor"
          focusable="false"
          height="18"
          viewBox="0 0 24 24"
          width="18"
          xmlns="http://www.w3.org/2000/svg"
        >
          <path
            d="M15 11.586V6h2V4a2 2 0 00-2-2H9a2 2 0 00-2 2v2h2v5.586l-2.707 1.707A.996.996 0 006 14v2a1 1 0 001 1h4v3l1 2 1-2v-3h4a1 1 0 001-1v-2a.996.996 0 00-.293-.707L15 11.586z"
          />
        </svg>
      </span>
      <span
        className="sc-AxhCb iSkGeM"
      >
        id
      </span>
    </div>
    <div
      className="sc-AxirZ iJUfdN"
      onClick={[Function]}
    >
      <span
        className="sc-AxhUy cTwpSs"
      >
        <svg
          aria-hidden="true"
          className="sc-AxjAm gXIMwt"
          fill="currentColor"
          focusable="false"
          height="18"
          viewBox="0 0 24 24"
          width="18"
          xmlns="http://www.w3.org/2000/svg"
        >
          <path
            d="M15 11.586V6h2V4a2 2 0 00-2-2H9a2 2 0 00-2 2v2h2v5.586l-2.707 1.707A.996.996 0 006 14v2a1 1 0 001 1h4v3l1 2 1-2v-3h4a1 1 0 001-1v-2a.996.996 0 00-.293-.707L15 11.586z"
          />
        </svg>
      </span>
      <span
        className="sc-AxhCb iSkGeM"
      >
        name
      </span>
      <svg
        aria-hidden="true"
        className="sc-AxjAm gXIMwt"
        fill="currentColor"
        focusable="false"
        height="18"
        viewBox="0 0 24 24"
        width="18"
        xmlns="http://www.w3.org/2000/svg"
      >
        <g
          data-name="Layer 2"
        >
          <g
            data-name="arrowhead-down"
          >
            <path
              d="M17.37 12.39L12 16.71l-5.36-4.48a1 1 0 10-1.28 1.54l6 5a1 1 0 001.27 0l6-4.83a1 1 0 00.15-1.41 1 1 0 00-1.41-.14z"
            />
            <path
              d="M11.36 11.77a1 1 0 001.27 0l6-4.83a1 1 0 00.15-1.41 1 1 0 00-1.41-.15L12 9.71 6.64 5.23a1 1 0 00-1.28 1.54z"
            />
          </g>
        </g>
      </svg>
    </div>
    <div
      className="sc-AxirZ iJUfdN"
      onClick={[Function]}
    >
      <span
        className="sc-AxhUy cTwpSs"
      >
        <svg
          aria-hidden="true"
          className="sc-AxjAm gXIMwt"
          fill="currentColor"
          focusable="false"
          height="18"
          viewBox="0 0 24 24"
          width="18"
          xmlns="http://www.w3.org/2000/svg"
        >
          <path
            d="M15 11.586V6h2V4a2 2 0 00-2-2H9a2 2 0 00-2 2v2h2v5.586l-2.707 1.707A.996.996 0 006 14v2a1 1 0 001 1h4v3l1 2 1-2v-3h4a1 1 0 001-1v-2a.996.996 0 00-.293-.707L15 11.586z"
          />
        </svg>
      </span>
      <span
        className="sc-AxhCb iSkGeM"
      >
        age
      </span>
    </div>
    <div
      className="sc-AxgMl kivsMR"
    >
      <div>
        Hello M.P.
      </div>
    </div>
    <div
      className="sc-AxgMl kivsMR"
    >
      Beru Whitesun lars
    </div>
    <div
      className="sc-AxgMl kivsMR"
    >
      57
    </div>
    <div
      className="sc-AxgMl kivsMR"
    >
      <div>
        Hello M.P.
      </div>
    </div>
    <div
      className="sc-AxgMl kivsMR"
    >
      Darth Vader
    </div>
    <div
      className="sc-AxgMl kivsMR"
    >
      43
    </div>
    <div
      className="sc-AxgMl kivsMR"
    >
      <div>
        Hello M.P.
      </div>
    </div>
    <div
      className="sc-AxgMl kivsMR"
    >
      Owen Lars
    </div>
    <div
      className="sc-AxgMl kivsMR"
    >
      34
    </div>
  </div>
</div>
`;
